Relational Data
…
## # A tibble: 3 x 3
##     key val_x val_y
##   <dbl> <chr> <chr>
## 1     1 x1    y1   
## 2     2 x2    y2   
## 3     3 x3    <NA>

Contoh menggunakan dataset nycflight13

flights2 <- flights %>% 
  select(year:day, hour, origin, dest, tailnum, carrier)
flights2

## # A tibble: 336,776 x 8
##     year month   day  hour origin dest  tailnum carrier
##    <int> <int> <int> <dbl> <chr>  <chr> <chr>   <chr>  
##  1  2013     1     1     5 EWR    IAH   N14228  UA     
##  2  2013     1     1     5 LGA    IAH   N24211  UA     
##  3  2013     1     1     5 JFK    MIA   N619AA  AA     
##  4  2013     1     1     5 JFK    BQN   N804JB  B6     
##  5  2013     1     1     6 LGA    ATL   N668DN  DL     
##  6  2013     1     1     5 EWR    ORD   N39463  UA     
##  7  2013     1     1     6 EWR    FLL   N516JB  B6     
##  8  2013     1     1     6 LGA    IAD   N829AS  EV     
##  9  2013     1     1     6 JFK    MCO   N593JB  B6     
## 10  2013     1     1     6 LGA    ORD   N3ALAA  AA     
## # ... with 336,766 more rows

#> # A tibble: 336,776 x 8
#>    year month   day  hour origin dest  tailnum carrier
#>   <int> <int> <int> <dbl> <chr>  <chr> <chr>   <chr>  
#> 1  2013     1     1     5 EWR    IAH   N14228  UA     
#> 2  2013     1     1     5 LGA    IAH   N24211  UA     
#> 3  2013     1     1     5 JFK    MIA   N619AA  AA     
#> 4  2013     1     1     5 JFK    BQN   N804JB  B6     
#> 5  2013     1     1     6 LGA    ATL   N668DN  DL     
#> 6  2013     1     1     5 EWR    ORD   N39463  UA     
#> # … with 336,770 more rows

flights2 %>%
  select(-origin, -dest) %>% 
  left_join(airlines, by = "carrier")

## # A tibble: 336,776 x 7
##     year month   day  hour tailnum carrier name                    
##    <int> <int> <int> <dbl> <chr>   <chr>   <chr>                   
##  1  2013     1     1     5 N14228  UA      United Air Lines Inc.   
##  2  2013     1     1     5 N24211  UA      United Air Lines Inc.   
##  3  2013     1     1     5 N619AA  AA      American Airlines Inc.  
##  4  2013     1     1     5 N804JB  B6      JetBlue Airways         
##  5  2013     1     1     6 N668DN  DL      Delta Air Lines Inc.    
##  6  2013     1     1     5 N39463  UA      United Air Lines Inc.   
##  7  2013     1     1     6 N516JB  B6      JetBlue Airways         
##  8  2013     1     1     6 N829AS  EV      ExpressJet Airlines Inc.
##  9  2013     1     1     6 N593JB  B6      JetBlue Airways         
## 10  2013     1     1     6 N3ALAA  AA      American Airlines Inc.  
## # ... with 336,766 more rows

#> # A tibble: 336,776 x 7
#>    year month   day  hour tailnum carrier name                  
#>   <int> <int> <int> <dbl> <chr>   <chr>   <chr>                 
#> 1  2013     1     1     5 N14228  UA      United Air Lines Inc. 
#> 2  2013     1     1     5 N24211  UA      United Air Lines Inc. 
#> 3  2013     1     1     5 N619AA  AA      American Airlines Inc.
#> 4  2013     1     1     5 N804JB  B6      JetBlue Airways       
#> 5  2013     1     1     6 N668DN  DL      Delta Air Lines Inc.  
#> 6  2013     1     1     5 N39463  UA      United Air Lines Inc. 
#> # … with 336,770 more rows
…
